Recreating the dynbenchmark figures • funkyheatmap
…
library(funkyheatmap)
library(kableExtra)

data("dynbenchmark_data")

Process results

The results data is one big data frame.

data <- dynbenchmark_data$data
print(data[, 1:12])
#> # A tibble: 51 × 12
#>    id               method_name method_source tool_id method_platform method_url
#>    <chr>            <chr>       <chr>         <chr>   <chr>           <chr>     
#>  1 paga             PAGA        tool          paga    Python          https://g…
#>  2 raceid_stemid    RaceID / S… tool          raceid… R               https://g…
#>  3 slicer           SLICER      tool          slicer  R               https://g…
#>  4 slingshot        Slingshot   tool          slings… R               https://g…
#>  5 paga_tree        PAGA Tree   tool          paga    Python          https://g…
#>  6 projected_sling… Projected … tool          slings… R               https://g…
#>  7 mst              MST         offtheshelf   mst     R               NA        
#>  8 monocle_ica      Monocle ICA tool          monocle R               https://g…
#>  9 monocle_ddrtree  Monocle DD… tool          monocle R               https://g…
#> 10 pcreode          pCreode     tool          pcreode Python          https://g…
#> # ℹ 41 more rows
#> # ℹ 6 more variables: method_license <chr>, method_authors <list>,
#> #   method_description <chr>, wrapper_input_required <list>,
#> #   wrapper_input_optional <list>, wrapper_type <chr>
…
