Recreating the scIB figures • funkyheatmap
…
column_info
#> # A tibble: 27 × 9
#>    id                      name   geom  group palette width legend hjust overlay
#>    <chr>                   <chr>  <chr> <chr> <chr>   <dbl> <lgl>  <dbl> <lgl>  
#>  1 id                      Rank   text  Meth… NA        1   FALSE    0   FALSE  
#>  2 method                  Method text  Meth… NA        5   FALSE    0   FALSE  
#>  3 output_img              Output image Meth… NA        1   FALSE    0.5 FALSE  
#>  4 features                Featu… text  Meth… NA        2   FALSE    0.5 FALSE  
#>  5 scaling                 Scali… text  Meth… NA        1   TRUE     0.5 FALSE  
#>  6 overall_pancreas        Pancr… bar   RNA   blues     1.5 TRUE    NA   FALSE  
#>  7 label_pancreas          NA     text  RNA   NA       NA   FALSE    0.1 TRUE   
#>  8 overall_lung_atlas      Lung   bar   RNA   blues     1.5 TRUE    NA   FALSE  
#>  9 label_lung_atlas        NA     text  RNA   NA       NA   FALSE    0.1 TRUE   
#> 10 overall_immune_cell_hum Immun… bar   RNA   blues     1.5 TRUE    NA   FALSE  
#> # ℹ 17 more rows
…
